{
  "subject": "first",
  "label": "firstname",
  "blocks": [
    {
      "id": "b88736d0-74aa-47f5-a87c-a89dbf34471c",
      "type": "START",
      "name": "Начало",
      "comment": "",
      "x": 146,
      "y": 114,
      "nextId": "c03e3679-ad95-4d9d-9e1c-964d556ddcb9",
      "phase": null,
      "phaseStart": null
    },
    {
      "id": "b24de2f1-1191-4c02-af85-f86467317d46",
      "type": "STOP",
      "name": "Конец",
      "comment": "",
      "x": 502,
      "y": 110.71875,
      "nextId": null,
      "phase": null,
      "phaseStart": null
    },
    {
      "id": "c03e3679-ad95-4d9d-9e1c-964d556ddcb9",
      "type": "SCREEN",
      "name": "Test Script",
      "comment": "",
      "x": 272,
      "y": 98.71875,
      "nextId": "b24de2f1-1191-4c02-af85-f86467317d46",
      "phase": null,
      "phaseStart": null,
      "widgets": [
        {
          "component": "TextBlock",
          "props": [
            {
              "value": "myValue",
              "type": "link",
              "name": "text"
            }
          ],
          "rowNumber": 0,
          "width": 12,
          "offset": 0,
          "validators": []
        },
        {
          "component": "TextInputBlock",
          "props": [],
          "rowNumber": 0,
          "width": 12,
          "offset": 0,
          "validators": [],
          "contextName": "name",
          "isRequired": true
        }
      ],
      "visibility": [],
      "hasBack": true,
      "hasNext": true,
      "backLabel": "Назад",
      "nextLabel": "Далее",
      "nextValidators": []
    }
  ],
  "macros": [],
  "phases": []
}